{
  "data": [
    {
      "id": 354474,
      "common_name": "Bataua palm",
      "slug": "oenocarpus-bataua",
      "scientific_name": "Oenocarpus bataua",
      "year": 1823,
      "bibliography": "Hist. Nat. Palm. 2: 23 (1823)",
      "author": "Mart.",
      "status": "accepted",
      "rank": "species",
      "family_common_name": "Palm family",
      "genus_id": 8210,
      "image_url": "https://bs.floristic.org/image/o/f0ba4622e40b50b9094fb617144e7cf4957c7cc8",
      "synonyms": [
        "Jessenia bataua",
        "Jessenia polycarpa",
        "Oenocarpus batawa",
        "Jessenia repanda",
        "Jessenia weberbaueri"
      ],
      "genus": "Oenocarpus",
      "family": "Arecaceae",
      "links": {
        "self": "/api/v1/species/oenocarpus-bataua",
        "plant": "/api/v1/plants/oenocarpus-bataua",
        "genus": "/api/v1/genus/oenocarpus"
      }
    },
    {
      "id": 170913,
      "common_name": "Sierran palm",
      "slug": "prestoea-acuminata",
      "scientific_name": "Prestoea acuminata",
      "year": 1963,
      "bibliography": "Gentes Herbarum 9: 286 (1963)",
      "author": "(Willd.) H.E.Moore",
      "status": "accepted",
      "rank": "species",
      "family_common_name": "Palm family",
      "genus_id": 5597,
      "image_url": "https://d2seqvvyy3b8p2.cloudfront.net/4ac2e539eda7b838e9a1895d749a4e8e.jpg",
      "synonyms": [
        "Euterpe andicola",
        "Euterpe antioquensis",
        "Euterpe acuminata",
        "Prestoea gregalis",
        "Prestoea sabana",
        "Oreodoxa acuminata",
        "Euterpe haenkeana",
        "Oreodoxa frigida",
        "Euterpe frigida",
        "Aiphanes praga",
        "Euterpe andina",
        "Euterpe chaunostachys",
        "Euterpe aphanolepis",
        "Euterpe megalochlamys",
        "Euterpe brevivaginata",
        "Euterpe oocarpa",
        "Oenocarpus frigidus",
        "Euterpe trichoclada",
        "Oenocarpus utilis",
        "Euterpe microspadix",
        "Euterpe praga",
        "Oenocarpus caracasanus",
        "Oenocarpus calaber",
        "Oenocarpus glaucus",
        "Prestoea trichoclada",
        "Prestoea allenii",
        "Euterpe purpurea",
        "Prestoea megalochlamys",
        "Euterpe zephyria"
      ],
      "genus": "Prestoea",
      "family": "Arecaceae",
      "links": {
        "self": "/api/v1/species/prestoea-acuminata",
        "plant": "/api/v1/plants/prestoea-acuminata",
        "genus": "/api/v1/genus/prestoea"
      }
    },
    {
      "id": 350513,
      "common_name": "Picabeen palm",
      "slug": "archontophoenix-cunninghamiana",
      "scientific_name": "Archontophoenix cunninghamiana",
      "year": 1875,
      "bibliography": "Linnaea 39: 214 (1875)",
      "author": "(H.Wendl.) H.Wendl. & Drude",
      "status": "accepted",
      "rank": "species",
      "family_common_name": "Palm family",
      "genus_id": 585,
      "image_url": "https://bs.floristic.org/image/o/519ba5393b372c3ccc72a40302c455715ebde750",
      "synonyms": [
        "Jessenia amazonum",
        "Loroma amethystina",
        "Loroma cunninghamiana",
        "Ptychosperma cunninghamianum",
        "Seaforthia elegans"
      ],
      "genus": "Archontophoenix",
      "family": "Arecaceae",
      "links": {
        "self": "/api/v1/species/archontophoenix-cunninghamiana",
        "plant": "/api/v1/plants/archontophoenix-cunninghamiana",
        "genus": "/api/v1/genus/archontophoenix"
      }
    },
    {
      "id": 350561,
      "common_name": "Nikau palm",
      "slug": "rhopalostylis-sapida",
      "scientific_name": "Rhopalostylis sapida",
      "year": 1878,
      "bibliography": "O.C.E.de Kerchove de Denterghem, Palmiers: 255 (1878)",
      "author": "(Sol. ex G.Forst.) H.Wendl. & Drude",
      "status": "accepted",
      "rank": "species",
      "family_common_name": "Palm family",
      "genus_id": 10755,
      "image_url": "https://bs.floristic.org/image/o/542a819d4aac143e7ca0cba84b7f25f20b32e590",
      "synonyms": [
        "Kentia sapida",
        "Areca sapida",
        "Eora sapida",
        "Areca banksii"
      ],
      "genus": "Rhopalostylis",
      "family": "Arecaceae",
      "links": {
        "self": "/api/v1/species/rhopalostylis-sapida",
        "plant": "/api/v1/plants/rhopalostylis-sapida",
        "genus": "/api/v1/genus/rhopalostylis"
      }
    },
    {
      "id": 353288,
      "common_name": "Australian cabbage palm",
      "slug": "livistona-australis",
      "scientific_name": "Livistona australis",
      "year": 1838,
      "bibliography": "Hist. Nat. Palm. 3: 242 (1838)",
      "author": "(R.Br.) Mart.",
      "status": "accepted",
      "rank": "species",
      "family_common_name": "Palm family",
      "genus_id": 4234,
      "image_url": "https://bs.floristic.org/image/o/f76f421b9cc49b371d3a6a1d14192a7eaec01aa5",
      "synonyms": [
        "Corypha australis"
      ],
      "genus": "Livistona",
      "family": "Arecaceae",
      "links": {
        "self": "/api/v1/species/livistona-australis",
        "plant": "/api/v1/plants/livistona-australis",
        "genus": "/api/v1/genus/livistona"
      }
    },
    {
      "id": 187841,
      "common_name": "Florida thatch palm",
      "slug": "thrinax-radiata",
      "scientific_name": "Thrinax radiata",
      "year": 1830,
      "bibliography": "Syst. Veg. 7(2): 1301 (1830)",
      "author": "Lodd. ex Schult. & Schult.f.",
      "status": "accepted",
      "rank": "species",
      "family_common_name": "Palm family",
      "genus_id": 4138,
      "image_url": "https://bs.floristic.org/image/o/ac0969e39f40ddd8d4c1fdc31e5bb6925678ffd8",
      "synonyms": [
        "Thrinax floridana",
        "Thrinax martii",
        "Porothrinax pumilio",
        "Coccothrinax martii",
        "Thrinax wendlandiana",
        "Coccothrinax radiata",
        "Thrinax pumilio",
        "Thrinax elegantissima",
        "Thrinax elegans",
        "Thrinax ferruginea",
        "Thrinax maritima",
        "Thrinax montana",
        "Thrinax gracilis",
        "Thrinax mexicana"
      ],
      "genus": "Thrinax",
      "family": "Arecaceae",
      "links": {
        "self": "/api/v1/species/thrinax-radiata",
        "plant": "/api/v1/plants/thrinax-radiata",
        "genus": "/api/v1/genus/thrinax"
      }
    },
    {
      "id": 166722,
      "common_name": "Ivory nut palm",
      "slug": "phytelephas-macrocarpa",
      "scientific_name": "Phytelephas macrocarpa",
      "year": 1798,
      "bibliography": "Syst. Veg. Fl. Peruv. Chil.: 301 (1798)",
      "author": "Ruiz & Pav.",
      "status": "accepted",
      "rank": "species",
      "family_common_name": "Palm family",
      "genus_id": 5342,
      "image_url": "https://bs.floristic.org/image/o/869a952f53dc59a094d5a2532def53fb059dde2c",
      "synonyms": [
        "Phytelephas cornutus",
        "Phytelephas seemannii subsp. brevipes",
        "Phytelephas seemannii",
        "Phytelephas brachinus",
        "Phytelephas brachelus",
        "Phytelephas longiflora",
        "Phytelephas pittieri",
        "Phytelephas brevipes",
        "Phytelephas microcarpa",
        "Yarina microcarpa",
        "Phytelephas schottii",
        "Elephantusia microcarpa",
        "Phytelephas karstenii",
        "Elephantusia macrocarpa",
        "Phytelephas macrocarpa subsp. schottii"
      ],
      "genus": "Phytelephas",
      "family": "Arecaceae",
      "links": {
        "self": "/api/v1/species/phytelephas-macrocarpa",
        "plant": "/api/v1/plants/phytelephas-macrocarpa",
        "genus": "/api/v1/genus/phytelephas"
      }
    },
    {
      "id": 227832,
      "common_name": "Bacaba palm",
      "slug": "oenocarpus-bacaba",
      "scientific_name": "Oenocarpus bacaba",
      "year": 1823,
      "bibliography": "Hist. Nat. Palm. 2: 24 (1823)",
      "author": "Mart.",
      "status": "accepted",
      "rank": "species",
      "family_common_name": "Palm family",
      "genus_id": 8210,
      "image_url": "https://bs.floristic.org/image/o/16e61d844016a27eda32e11f77abd7c95abea3a6",
      "synonyms": [
        "Oenocarpus grandis",
        "Oenocarpus hoppii",
        "Oenocarpus bacaba var. grandis",
        "Areca bacaba"
      ],
      "genus": "Oenocarpus",
      "family": "Arecaceae",
      "links": {
        "self": "/api/v1/species/oenocarpus-bacaba",
        "plant": "/api/v1/plants/oenocarpus-bacaba",
        "genus": "/api/v1/genus/oenocarpus"
      }
    },
    {
      "id": 111972,
      "common_name": "Palmyra palm",
      "slug": "borassus-aethiopum",
      "scientific_name": "Borassus aethiopum",
      "year": 1838,
      "bibliography": "Hist. Nat. Palm. 3: 221 (1838)",
      "author": "Mart.",
      "status": "accepted",
      "rank": "species",
      "family_common_name": "Palm family",
      "genus_id": 1051,
      "image_url": "https://bs.floristic.org/image/o/a8578e07c82b25ec073b7e71748b1bca16101fd4",
      "synonyms": [
        "Borassus sambiranensis",
        "Borassus deleb"
      ],
      "genus": "Borassus",
      "family": "Arecaceae",
      "links": {
        "self": "/api/v1/species/borassus-aethiopum",
        "plant": "/api/v1/plants/borassus-aethiopum",
        "genus": "/api/v1/genus/borassus"
      }
    },
    {
      "id": 119224,
      "common_name": "European fan palm",
      "slug": "chamaerops-humilis",
      "scientific_name": "Chamaerops humilis",
      "year": 1753,
      "bibliography": "Sp. Pl.: 1187 (1753)",
      "author": "L.",
      "status": "accepted",
      "rank": "species",
      "family_common_name": "Palm family",
      "genus_id": 1662,
      "image_url": "https://bs.floristic.org/image/o/44cf59b2c8fdc95352a611a0dfa9173e884d5838",
      "synonyms": [
        "Chamaerops conduplicata",
        "Chamaerops macrocarpa",
        "Chamaerops bilaminata",
        "Chamaerops arborescens",
        "Chamaerops elegans"
      ],
      "genus": "Chamaerops",
      "family": "Arecaceae",
      "links": {
        "self": "/api/v1/species/chamaerops-humilis",
        "plant": "/api/v1/plants/chamaerops-humilis",
        "genus": "/api/v1/genus/chamaerops"
      }
    },
    {
      "id": 185346,
      "common_name": "Queen palm",
      "slug": "syagrus-romanzoffiana",
      "scientific_name": "Syagrus romanzoffiana",
      "year": 1968,
      "bibliography": "Fieldiana, Bot. 31: 382 (1968)",
      "author": "(Cham.) Glassman",
      "status": "accepted",
      "rank": "species",
      "family_common_name": "Palm family",
      "genus_id": 6428,
      "image_url": "https://bs.floristic.org/image/o/e3c0f7c6cbeb9749e457aa676fedba8d9f77af6f",
      "synonyms": [
        "Calappa martiana",
        "Cocos arechavaletana",
        "Arecastrum romanzoffianum",
        "Calappa australis",
        "Cocos plumosa",
        "Calappa romanzoffiana",
        "Arecastrum romanzoffianum var. australe",
        "Arecastrum romanzoffianum subvar. minus",
        "Cocos datil",
        "Calappa plumosa",
        "Cocos romanzoffiana",
        "Arecastrum romanzoffianum var. genuinum",
        "Arecastrum romanzoffianum var. micropindo",
        "Cocos geriba",
        "Cocos martiana",
        "Cocos acrocomioides",
        "Cocos australis",
        "Calappa acrocomioides",
        "Calappa datil"
      ],
      "genus": "Syagrus",
      "family": "Arecaceae",
      "links": {
        "self": "/api/v1/species/syagrus-romanzoffiana",
        "plant": "/api/v1/plants/syagrus-romanzoffiana",
        "genus": "/api/v1/genus/syagrus"
      }
    },
    {
      "id": 228397,
      "common_name": "Trinidad palm",
      "slug": "sabal-mauritiiformis",
      "scientific_name": "Sabal mauritiiformis",
      "year": 1864,
      "bibliography": "A.H.R.Grisebach, Fl. Brit. W. I.: 514 (1864)",
      "author": "(H.Karst.) Griseb. & H.Wendl.",
      "status": "accepted",
      "rank": "species",
      "family_common_name": "Palm family",
      "genus_id": 5936,
      "image_url": "https://bs.floristic.org/image/o/35dab46ef05adbd25fef8199356657c2297c1a38",
      "synonyms": [
        "Sabal morrisiana",
        "Sabal allenii",
        "Trithrinax mauritiiformis",
        "Sabal glaucescens",
        "Sabal nematoclada",
        "Sabal coerulescens"
      ],
      "genus": "Sabal",
      "family": "Arecaceae",
      "links": {
        "self": "/api/v1/species/sabal-mauritiiformis",
        "plant": "/api/v1/plants/sabal-mauritiiformis",
        "genus": "/api/v1/genus/sabal"
      }
    },
    {
      "id": 111700,
      "common_name": "Palm fern",
      "slug": "blechnum-appendiculatum",
      "scientific_name": "Blechnum appendiculatum",
      "year": 1810,
      "bibliography": "Sp. Pl., ed. 4, 5: 410 (1810)",
      "author": "Willd.",
      "status": "accepted",
      "rank": "species",
      "family_common_name": "Spleenwort family",
      "genus_id": 995,
      "image_url": "https://d2seqvvyy3b8p2.cloudfront.net/7fc861b033f0bc084b5b3792ff743911.jpg",
      "synonyms": [
        "Blechnum glandulosum var. distans",
        "Blechnum distans var. meridionale",
        "Blechnum occidentale var. glandulosum",
        "Blechnum heterocarpum",
        "Blechnum glandulosum var. meridionale",
        "Blechnum occidentale f. pubirhachis",
        "Blechnum occidentale var. distans",
        "Blechnum occidentale var. appendiculata",
        "Blechnum occidentale var. meridionale",
        "Blechnum meridionale",
        "Mesothema appendiculatum",
        "Blechnum distans",
        "Blechnum occidentale var. intermedium",
        "Blechnum intermedium",
        "Blechnum longifolium var. intermedium",
        "Blechnum occidentale var. minor"
      ],
      "genus": "Blechnum",
      "family": "Aspleniaceae",
      "links": {
        "self": "/api/v1/species/blechnum-appendiculatum",
        "plant": "/api/v1/plants/blechnum-appendiculatum",
        "genus": "/api/v1/genus/blechnum"
      }
    },
    {
      "id": 165985,
      "common_name": "Senegal date palm",
      "slug": "phoenix-reclinata",
      "scientific_name": "Phoenix reclinata",
      "year": 1858,
      "bibliography": "Fragm. 1: 27 (1858)",
      "author": "Jacq.",
      "status": "accepted",
      "rank": "species",
      "family_common_name": "Palm family",
      "genus_id": 5305,
      "image_url": "https://bs.floristic.org/image/o/f0eea4f4e7b7faecd8a0069c592981393e274e88",
      "synonyms": [
        "Phoenix reclinata var. comorensis",
        "Phoenix reclinata var. madagascariensis",
        "Phoenix comorensis",
        "Phoenix equinoxialis",
        "Phoenix dybowskii",
        "Fulchironia senegalensis",
        "Phoenix abyssinica",
        "Phoenix spinosa",
        "Phoenix leonensis",
        "Phoenix djalonensis",
        "Phoenix baoulensis"
      ],
      "genus": "Phoenix",
      "family": "Arecaceae",
      "links": {
        "self": "/api/v1/species/phoenix-reclinata",
        "plant": "/api/v1/plants/phoenix-reclinata",
        "genus": "/api/v1/genus/phoenix"
      }
    },
    {
      "id": 192708,
      "common_name": "California fan palm",
      "slug": "washingtonia-filifera",
      "scientific_name": "Washingtonia filifera",
      "year": 1879,
      "bibliography": "Bot. Zeitung (Berlin) 37: LXI (1879)",
      "author": "(Rafarin) H.Wendl. ex de Bary",
      "status": "accepted",
      "rank": "species",
      "family_common_name": "Palm family",
      "genus_id": 5036,
      "image_url": "https://bs.floristic.org/image/o/60456cba058eee72b81b3dc5113beeb617c85906",
      "synonyms": [
        "Neowashingtonia filamentosa",
        "Brahea filamentosa",
        "Washingtonia filamentosa",
        "Brahea filifera",
        "Brahea dulcis",
        "Sabal filifera",
        "Neowashingtonia filifera",
        "Washingtonia filifera var. microsperma",
        "Pritchardia filamentosa ex",
        "Pritchardia filifera",
        "Brahea schippii",
        "Washingtonia filifera var. typica",
        "Livistona filamentosa",
        "Pritchardia filamentosa",
        "Brahea berlandieri",
        "Acoelorraphe schippii",
        "Brahea frigida",
        "Brahea bella",
        "Livistona occidentalis",
        "Brahea dulcis f. humilis",
        "Thrinax tunica",
        "Corypha dulcis",
        "Brahea conzattii"
      ],
      "genus": "Washingtonia",
      "family": "Arecaceae",
      "links": {
        "self": "/api/v1/species/washingtonia-filifera",
        "plant": "/api/v1/plants/washingtonia-filifera",
        "genus": "/api/v1/genus/washingtonia"
      }
    },
    {
      "id": 165983,
      "common_name": "Date palm",
      "slug": "phoenix-dactylifera",
      "scientific_name": "Phoenix dactylifera",
      "year": 1753,
      "bibliography": "Sp. Pl.: 1188 (1753)",
      "author": "L.",
      "status": "accepted",
      "rank": "species",
      "family_common_name": "Palm family",
      "genus_id": 5305,
      "image_url": "https://bs.floristic.org/image/o/b5dd0fd78562492f88ed5d8bd3bc091609a6a2fc",
      "synonyms": [
        "Phoenix atlantica var. maroccana",
        "Phoenix dactylifera var. adunca",
        "Phoenix dactylifera var. costata",
        "Phoenix dactylifera var. cylindrocarpa",
        "Phoenix dactylifera var. gonocarpa",
        "Phoenix dactylifera var. oocarpa",
        "Phoenix dactylifera var. oxysperma",
        "Phoenix dactylifera var. sphaerocarpa",
        "Phoenix dactylifera var. sylvestris",
        "Phoenix chevalieri",
        "Palma major",
        "Phoenix iberica",
        "Palma dactylifera",
        "Phoenix excelsior",
        "Phoenix dactylifera var. jubae",
        "Macrozamia tridentata var. pungens",
        "Zamia pallida",
        "Encephalartos pungens"
      ],
      "genus": "Phoenix",
      "family": "Arecaceae",
      "links": {
        "self": "/api/v1/species/phoenix-dactylifera",
        "plant": "/api/v1/plants/phoenix-dactylifera",
        "genus": "/api/v1/genus/phoenix"
      }
    },
    {
      "id": 353611,
      "common_name": "Kentia palm",
      "slug": "howea-forsteriana",
      "scientific_name": "Howea forsteriana",
      "year": 1877,
      "bibliography": "Malesia 1: 66 (1877)",
      "author": "(F.Muell.) Becc.",
      "status": "accepted",
      "rank": "species",
      "family_common_name": "Palm family",
      "genus_id": 10777,
      "image_url": "https://bs.floristic.org/image/o/6534785778b89401046d92cd6a3e12f909c9982f",
      "synonyms": [
        "Kentia forsteriana",
        "Denea forsteriana",
        "Grisebachia forsteriana",
        "Howeia forsteriana"
      ],
      "genus": "Howea",
      "family": "Arecaceae",
      "links": {
        "self": "/api/v1/species/howea-forsteriana",
        "plant": "/api/v1/plants/howea-forsteriana",
        "genus": "/api/v1/genus/howea"
      }
    },
    {
      "id": 188553,
      "common_name": "Chinese windmill palm",
      "slug": "trachycarpus-fortunei",
      "scientific_name": "Trachycarpus fortunei",
      "year": 1861,
      "bibliography": "Bull. Soc. Bot. France 8: 429 (1861)",
      "author": "(Hook.) H.Wendl.",
      "status": "accepted",
      "rank": "species",
      "family_common_name": "Palm family",
      "genus_id": 6652,
      "image_url": "https://bs.floristic.org/image/o/ec925ac1b64a3808b4f9b68bb91b9d15be6681be",
      "synonyms": [
        "Trachycarpus wagnerianus",
        "Trachycarpus caespitosus",
        "Chamaerops fortunei"
      ],
      "genus": "Trachycarpus",
      "family": "Arecaceae",
      "links": {
        "self": "/api/v1/species/trachycarpus-fortunei",
        "plant": "/api/v1/plants/trachycarpus-fortunei",
        "genus": "/api/v1/genus/trachycarpus"
      }
    },
    {
      "id": 192716,
      "common_name": "Washington fan palm",
      "slug": "washingtonia-robusta",
      "scientific_name": "Washingtonia robusta",
      "year": 1883,
      "bibliography": "Gart.-Zeitung (Berlin) 2: 198 (1883)",
      "author": "H.Wendl.",
      "status": "accepted",
      "rank": "species",
      "family_common_name": "Palm family",
      "genus_id": 5036,
      "image_url": "https://bs.floristic.org/image/o/f8ade3d0ffbdb1b6650bc874a008127485979c03",
      "synonyms": [
        "Washingtonia gracilis",
        "Washingtonia filifera var. robusta",
        "Washingtonia sonorae",
        "Washingtonia robusta var. gracilis",
        "Neowashingtonia robusta",
        "Washingtonia filifera var. sonorae",
        "Neowashingtonia sonorae",
        "Washingtonia filifera var. gracilis",
        "Pritchardia robusta"
      ],
      "genus": "Washingtonia",
      "family": "Arecaceae",
      "links": {
        "self": "/api/v1/species/washingtonia-robusta",
        "plant": "/api/v1/plants/washingtonia-robusta",
        "genus": "/api/v1/genus/washingtonia"
      }
    }
  ],
  "links": {
    "self": "/api/v1/species/search?q=palm",
    "first": "/api/v1/species/search?page=1&q=palm",
    "next": "/api/v1/species/search?page=2&q=palm",
    "last": "/api/v1/species/search?page=198&q=palm"
  },
  "meta": {
    "total": 3941
  }
}