{
  "data": [
    {
      "id": 182512,
      "common_name": "Garden tomato",
      "slug": "solanum-lycopersicum",
      "scientific_name": "Solanum lycopersicum",
      "year": 1753,
      "bibliography": "Sp. Pl.: 185 (1753)",
      "author": "L.",
      "status": "accepted",
      "rank": "species",
      "family_common_name": "Potato family",
      "genus_id": 4329,
      "image_url": "https://bs.floristic.org/image/o/400851a79391dbe6f667c66e4bf70299e9921853",
      "synonyms": [
        "Lycopersicon esculentum var. leptophyllum",
        "Lycopersicon cerasiforme",
        "Lycopersicon lycopersicum var. cerasiforme",
        "Lycopersicon pyriforme",
        "Lycopersicon esculentum",
        "Lycopersicon esculentum var. cerasiforme",
        "Lycopersicon lycopersicum",
        "Lycopersicon esculentum var. commune",
        "Solanum humboldtii",
        "Lycopersicon esculentum subsp. humboldtii",
        "Lycopersicon cerasiforme var. cognitum",
        "Solanum pomiferum",
        "Lycopersicon esculentum var. cydonicum",
        "Amatula rubra",
        "Lycopersicon galenii",
        "Lycopersicon esculentum subsp. intermedium",
        "Lycopersicon esculentum var. macrocalyx",
        "Solanum lycopersicum var. piriforme",
        "Lycopersicon esculentum var. validum",
        "Lycopersicon esculentum var. bukasovii",
        "Lycopersicon esculentum var. myrobalaneum",
        "Lycopersicon cerasiforme var. leptophyllum",
        "Lycopersicon esculentum var. pyriforme",
        "Lycopersicon philippinarum",
        "Lycopersicon humboldtii",
        "Solanum pyriforme",
        "Lycopersicon macrophyllum",
        "Solanum pseudolycopersicum",
        "Lycopersicon esculentum var. humboldtii",
        "Lycopersicon esculentum var. colombianum",
        "Lycopersicon cerasiforme var. rotundilobum",
        "Lycopersicon esculentum var. vulgare",
        "Amatula flava",
        "Lycopersicon spurium",
        "Lycopersicon solanum",
        "Lycopersicon esculentum var. grandifolium",
        "Lycopersicon esculentum var. pruniforme",
        "Solanum lycopersicum var. oviforme",
        "Lycopersicon esculentum f. pyriforme",
        "Lycopersicon esculentum var. luteum",
        "Lycopersicon esculentum var. umbertianum",
        "Solanum lycopersicum var. esculentum",
        "Scubulon humboldtii",
        "Solanum racemigerum",
        "Solanum spurium",
        "Lycopersicon esculentum var. esculentum",
        "Solanum pyriforme var. uniflorum",
        "Lycopersicon esculentum subsp. galenii",
        "Solanum lycopersicum var. cerasiforme",
        "Solanum plukenetii"
      ],
      "genus": "Solanum",
      "family": "Solanaceae",
      "links": {
        "self": "/api/v1/species/solanum-lycopersicum",
        "plant": "/api/v1/plants/solanum-lycopersicum",
        "genus": "/api/v1/genus/solanum"
      }
    },
    {
      "id": 166458,
      "common_name": "Husk tomato",
      "slug": "physalis-pubescens",
      "scientific_name": "Physalis pubescens",
      "year": 1753,
      "bibliography": "Sp. Pl.: 183 (1753)",
      "author": "L.",
      "status": "accepted",
      "rank": "species",
      "family_common_name": "Potato family",
      "genus_id": 4128,
      "image_url": "https://bs.floristic.org/image/o/e1ba3bfa5d515240685df1fe458d22aa58c23d4c",
      "synonyms": [
        "Physalis barbadensis var. obscura",
        "Physalis subulata",
        "Physalis turbinata",
        "Physalis latiphysa",
        "Physalis floridana",
        "Physalis barbadensis",
        "Physalis pubescens var. minutifolia",
        "Physalis obscura",
        "Boberella pubescens",
        "Physalis villosa",
        "Physalis foetens",
        "Physalis foetidissima",
        "Physalis brasiliensis",
        "Physalis angustiloba",
        "Physalis ramosa",
        "Alicabon barbadense",
        "Physalis decumbens",
        "Physalis surinamensis",
        "Physalis miraflorensis",
        "Physalis staminea",
        "Physalis hylophila",
        "Physalis nodosa",
        "Alkekengi villosa",
        "Physalis petiolaris",
        "Physalis turbinatoides",
        "Physalis hirsuta"
      ],
      "genus": "Physalis",
      "family": "Solanaceae",
      "links": {
        "self": "/api/v1/species/physalis-pubescens",
        "plant": "/api/v1/plants/physalis-pubescens",
        "genus": "/api/v1/genus/physalis"
      }
    },
    {
      "id": 1125816,
      "common_name": "Tree-tomato",
      "slug": "solanum-betaceum",
      "scientific_name": "Solanum betaceum",
      "year": 1799,
      "bibliography": "Anales Hist. Nat. 1:44.  1799",
      "author": "Cav.",
      "status": "accepted",
      "rank": "species",
      "family_common_name": "Potato family",
      "genus_id": 4329,
      "image_url": "https://bs.floristic.org/image/o/17a10587038dadfd0f08cd16bfe2aa870aa6277a",
      "synonyms": [
        "Cyphomandra betacea",
        "Cyphomandra crassifolia",
        "Pionandra betacea",
        "Solanum insigne",
        "Cyphomandra procera"
      ],
      "genus": "Solanum",
      "family": "Solanaceae",
      "links": {
        "self": "/api/v1/species/solanum-betaceum",
        "plant": "/api/v1/plants/solanum-betaceum",
        "genus": "/api/v1/genus/solanum"
      }
    },
    {
      "id": 1123973,
      "common_name": "Porcupine-tomato",
      "slug": "solanum-anceps",
      "scientific_name": "Solanum anceps",
      "year": 1799,
      "bibliography": "Fl. Peruv. 2: 36 (1799)",
      "author": "Ruiz & Pav.",
      "status": "accepted",
      "rank": "species",
      "family_common_name": "Potato family",
      "genus_id": 4329,
      "image_url": "https://d2seqvvyy3b8p2.cloudfront.net/d5cb8ba16b78d39706aedd5f77fef416.jpg",
      "synonyms": [
        "Capsicum richardii",
        "Solanum richardii",
        "Solanum theobromophyllum var. procerius",
        "Bassovia richardii var. martii",
        "Capsicum sylvaticum",
        "Solanum pyracanthos",
        "Bassovia platyneura",
        "Solanum hederiradiculum",
        "Solanum theobromophyllum",
        "Bassovia anceps",
        "Bassovia richardii",
        "Bassovia sylvatica",
        "Solanum aubletii",
        "Solanum conjungens",
        "Solanum balbisii",
        "Solanum acanthocalyx",
        "Solanum burtt-davyi",
        "Solanum richardii var. acutilobatum",
        "Solanum magnusianum",
        "Solanum richardii var. burtt-davyi",
        "Solanum bathocladon",
        "Solanum acutilobatum",
        "Solanum pyracantha",
        "Solanum haematocarpum",
        "Solanum rugosum"
      ],
      "genus": "Solanum",
      "family": "Solanaceae",
      "links": {
        "self": "/api/v1/species/solanum-anceps",
        "plant": "/api/v1/plants/solanum-anceps",
        "genus": "/api/v1/genus/solanum"
      }
    },
    {
      "id": 182557,
      "common_name": "Currant tomato",
      "slug": "solanum-pimpinellifolium",
      "scientific_name": "Solanum pimpinellifolium",
      "year": 1755,
      "bibliography": "Cent. Pl. I: 8 (1755)",
      "author": "L.",
      "status": "accepted",
      "rank": "species",
      "family_common_name": "Potato family",
      "genus_id": 4329,
      "image_url": "https://bs.floristic.org/image/o/967831e30f32a6ab3e4c3aaa42fbb5a9e3bfe650",
      "synonyms": [
        "Lycopersicon pimpinellifolium",
        "Lycopersicon esculentum subsp. pimpinellifolium",
        "Lycopersicon pissisi",
        "Lycopersicon pimpinellifolium var. intermedium",
        "Solanum pissisi",
        "Lycopersicon racemigerum",
        "Solanum pimpinelloides",
        "Lycopersicon inodorum",
        "Lycopersicon racemiforme"
      ],
      "genus": "Solanum",
      "family": "Solanaceae",
      "links": {
        "self": "/api/v1/species/solanum-pimpinellifolium",
        "plant": "/api/v1/plants/solanum-pimpinellifolium",
        "genus": "/api/v1/genus/solanum"
      }
    },
    {
      "id": 166402,
      "common_name": "Strawberry-tomato",
      "slug": "physalis-grisea",
      "scientific_name": "Physalis grisea",
      "year": 1993,
      "bibliography": "Taxon 42: 104 (1993)",
      "author": "(Waterf.) M.Martínez",
      "status": "accepted",
      "rank": "species",
      "family_common_name": "Potato family",
      "genus_id": 4128,
      "image_url": null,
      "synonyms": [
        "Physalis pubescens var. grisea"
      ],
      "genus": "Physalis",
      "family": "Solanaceae",
      "links": {
        "self": "/api/v1/species/physalis-grisea",
        "plant": "/api/v1/plants/physalis-grisea",
        "genus": "/api/v1/genus/physalis"
      }
    },
    {
      "id": 1131311,
      "common_name": null,
      "slug": "solanum-quadriloculatum",
      "scientific_name": "Solanum quadriloculatum",
      "year": 1861,
      "bibliography": "Fragm. 2(16): 161 (1861)",
      "author": "F.Muell.",
      "status": "accepted",
      "rank": "species",
      "family_common_name": "Potato family",
      "genus_id": 4329,
      "image_url": "https://d2seqvvyy3b8p2.cloudfront.net/48fd7dc70ff3fdee3471832f49945867.jpg",
      "synonyms": [
        "Solanum ellipticum var. duribaccalis",
        "Solanum crassitomentosum"
      ],
      "genus": "Solanum",
      "family": "Solanaceae",
      "links": {
        "self": "/api/v1/species/solanum-quadriloculatum",
        "plant": "/api/v1/plants/solanum-quadriloculatum",
        "genus": "/api/v1/genus/solanum"
      }
    },
    {
      "id": 1130549,
      "common_name": null,
      "slug": "solanum-esuriale",
      "scientific_name": "Solanum esuriale",
      "year": 1838,
      "bibliography": "Three Exped. Australia 2: 43 (1838)",
      "author": "Lindl.",
      "status": "accepted",
      "rank": "species",
      "family_common_name": "Potato family",
      "genus_id": 4329,
      "image_url": "https://d2seqvvyy3b8p2.cloudfront.net/21bcc580fb723249354df15045986b01.jpg",
      "synonyms": [
        "Solanum esuriale f. esuriale",
        "Solanum esuriale var. esuriale",
        "Solanum ellipticum f. inermis",
        "Solanum esuriale f. xanthocarpum",
        "Solanum esuriale f. rubro-aurantiacum",
        "Solanum esuriale var. sublobatum"
      ],
      "genus": "Solanum",
      "family": "Solanaceae",
      "links": {
        "self": "/api/v1/species/solanum-esuriale",
        "plant": "/api/v1/plants/solanum-esuriale",
        "genus": "/api/v1/genus/solanum"
      }
    },
    {
      "id": 1127300,
      "common_name": null,
      "slug": "solanum-cheesmaniae",
      "scientific_name": "Solanum cheesmaniae",
      "year": 1987,
      "bibliography": "Phytologia 62: 181 (1987)",
      "author": "(L.Riley) Fosberg",
      "status": "accepted",
      "rank": "species",
      "family_common_name": "Potato family",
      "genus_id": 4329,
      "image_url": "https://d2seqvvyy3b8p2.cloudfront.net/6486cb5fce8429cf871059274d3d4f0e.jpg",
      "synonyms": [
        "Lycopersicon cheesmaniae",
        "Lycopersicon esculentum var. minor",
        "Lycopersicon cheesmaniae subsp. typicum",
        "Lycopersicon peruvianum var. parviflorum",
        "Lycopersicon cheesmaniae var. minor",
        "Lycopersicon cheesmaniae f. minor"
      ],
      "genus": "Solanum",
      "family": "Solanaceae",
      "links": {
        "self": "/api/v1/species/solanum-cheesmaniae",
        "plant": "/api/v1/plants/solanum-cheesmaniae",
        "genus": "/api/v1/genus/solanum"
      }
    },
    {
      "id": 1130640,
      "common_name": null,
      "slug": "solanum-galapagense",
      "scientific_name": "Solanum galapagense",
      "year": 2003,
      "bibliography": "Syst. Biodivers. 1(1): 45 (2003)",
      "author": "S.C.Darwin & Peralta",
      "status": "accepted",
      "rank": "species",
      "family_common_name": "Potato family",
      "genus_id": 4329,
      "image_url": "https://d2seqvvyy3b8p2.cloudfront.net/4bd2bd5c981519420495b32e221a09d0.jpg",
      "synonyms": [],
      "genus": "Solanum",
      "family": "Solanaceae",
      "links": {
        "self": "/api/v1/species/solanum-galapagense",
        "plant": "/api/v1/plants/solanum-galapagense",
        "genus": "/api/v1/genus/solanum"
      }
    },
    {
      "id": 182421,
      "common_name": "Ethiopian nightshade",
      "slug": "solanum-aethiopicum",
      "scientific_name": "Solanum aethiopicum",
      "year": 1756,
      "bibliography": "Cent. Pl. II 2: 10 (1756)",
      "author": "L.",
      "status": "accepted",
      "rank": "species",
      "family_common_name": "Potato family",
      "genus_id": 4329,
      "image_url": "https://bs.floristic.org/image/o/b346b9ff4098cac3fddc12665c04f68823e19f33",
      "synonyms": [
        "Solanum gilo",
        "Solanum esculentum var. inerme",
        "Solanum indicum subsp. ambifarium",
        "Solanum elaeagnifolium",
        "Solanum ovatifolium",
        "Solanum gilo subsp. monteiroi",
        "Solanum dealbatum",
        "Solanum elaeagnifolium f. benkei",
        "Solanum hybridum",
        "Solanum aethiopicum var. integrifolium",
        "Solanum giorgii",
        "Solanum subsessile",
        "Pseudocapsicum torulosum",
        "Solanum gilo var. ellipsoideum",
        "Solanum melongena var. inerme",
        "Solanum aurantiacum",
        "Solanum lusitanicum",
        "Solanum gilo var. erectifructum",
        "Solanum zuccagnianum",
        "Solanum sudanense",
        "Solanum ambrosiacum",
        "Solanum elskensii",
        "Solanum poggei",
        "Solanum paaschenianum",
        "Solanum monteiroi",
        "Solanum sparsespinosum",
        "Solanum kupperi",
        "Solanum worsleyi",
        "Solanum texanum",
        "Solanum geminifolium",
        "Solanum pierreanum",
        "Solanum naumannii",
        "Solanum willdenowii",
        "Solanum gilo subsp. megalacanthum",
        "Solanum brieyi",
        "Solanum pseudomelongena",
        "Solanum olivare",
        "Solanum lobelii",
        "Solanum integrifolium",
        "Lycopersicon aethiopicum",
        "Solanum gilo var. pierreanum",
        "Solanum zuccagnianum var. allogonum",
        "Solanum racemiflorum",
        "Solanum texense",
        "Solanum elaeagnifolium var. leprosum",
        "Solanum elaeagnifolium var. grandiflorum",
        "Solanum elaeagnifolium var. obtusifolium",
        "Solanum leprosum",
        "Solanum flavidum",
        "Solanum elaeagnifolium var. angustifolium",
        "Solanum elaeagnifolium f. albiflorum",
        "Solanum roemerianum",
        "Solanum elaeagnifolium var. argyrocroton"
      ],
      "genus": "Solanum",
      "family": "Solanaceae",
      "links": {
        "self": "/api/v1/species/solanum-aethiopicum",
        "plant": "/api/v1/plants/solanum-aethiopicum",
        "genus": "/api/v1/genus/solanum"
      }
    },
    {
      "id": 182584,
      "common_name": "Cocona",
      "slug": "solanum-sessiliflorum",
      "scientific_name": "Solanum sessiliflorum",
      "year": 1814,
      "bibliography": ", Suppl. 3: 775 (1814)",
      "author": "Dunal",
      "status": "accepted",
      "rank": "species",
      "family_common_name": "Potato family",
      "genus_id": 4329,
      "image_url": "https://bs.floristic.org/image/o/ad6eea3aebd75433ebf7b0e18fd699c9a55821c2",
      "synonyms": [
        "Solanum topiro",
        "Solanum alibile",
        "Solanum georgicum",
        "Solanum sessiliflorum var. georgicum",
        "Solanum topiro var. georgicum"
      ],
      "genus": "Solanum",
      "family": "Solanaceae",
      "links": {
        "self": "/api/v1/species/solanum-sessiliflorum",
        "plant": "/api/v1/plants/solanum-sessiliflorum",
        "genus": "/api/v1/genus/solanum"
      }
    },
    {
      "id": 570572,
      "common_name": null,
      "slug": "blotiella-natalensis",
      "scientific_name": "Blotiella natalensis",
      "year": 1962,
      "bibliography": "Contr. Gray Herb. 191: 99 (1962)",
      "author": "(Hook.) R.M.Tryon",
      "status": "accepted",
      "rank": "species",
      "family_common_name": "Bracken Fern family",
      "genus_id": 10944,
      "image_url": "https://d2seqvvyy3b8p2.cloudfront.net/ec32ab527d5b42a25e0ed3835aa46fc7.jpg",
      "synonyms": [
        "Lonchitis hirsuta",
        "Lonchitis natalensis",
        "Lonchitis polypus",
        "Lonchitis javanica",
        "Pteris natalensis",
        "Lonchitis tomentosa",
        "Blotiella javanica",
        "Antiosorus hirsutus",
        "Anisosorus hirsutus",
        "Pteris ghiesbreghtii",
        "Pteris lonchitoides",
        "Lonchitis zahlbruckneri",
        "Litobrochia hirsuta"
      ],
      "genus": "Blotiella",
      "family": "Dennstaedtiaceae",
      "links": {
        "self": "/api/v1/species/blotiella-natalensis",
        "plant": "/api/v1/plants/blotiella-natalensis",
        "genus": "/api/v1/genus/blotiella"
      }
    },
    {
      "id": 1123251,
      "common_name": "Husk tomato",
      "slug": "physalis-pubescens-var-hygrophila",
      "scientific_name": "Physalis pubescens var. hygrophila",
      "year": 1852,
      "bibliography": "A.P.de Candolle, Prodr. 13(1): 446 (1852)",
      "author": "(Mart.) Dunal",
      "status": "accepted",
      "rank": "var",
      "family_common_name": "Potato family",
      "genus_id": 4128,
      "image_url": null,
      "synonyms": [
        "Physalis neesiana",
        "Physalis hygrophila"
      ],
      "genus": "Physalis",
      "family": "Solanaceae",
      "links": {
        "self": "/api/v1/species/physalis-pubescens-var-hygrophila",
        "plant": "/api/v1/plants/physalis-pubescens",
        "genus": "/api/v1/genus/physalis"
      }
    },
    {
      "id": 182450,
      "common_name": "Carolina horsenettle",
      "slug": "solanum-carolinense",
      "scientific_name": "Solanum carolinense",
      "year": 1753,
      "bibliography": "Sp. Pl.: 187 (1753)",
      "author": "L.",
      "status": "accepted",
      "rank": "species",
      "family_common_name": "Potato family",
      "genus_id": 4329,
      "image_url": "https://bs.floristic.org/image/o/b0ae1c9c3152f71d5b3667409609bb363dc026e2",
      "synonyms": [
        "Solanum carolinense var. floridanum",
        "Solanum floridanum",
        "Solanum godfreyi",
        "Solanum carolinense var. albiflorum",
        "Solanum pleei",
        "Solanum carolinense f. albiflorum",
        "Solanum obliquatum"
      ],
      "genus": "Solanum",
      "family": "Solanaceae",
      "links": {
        "self": "/api/v1/species/solanum-carolinense",
        "plant": "/api/v1/plants/solanum-carolinense",
        "genus": "/api/v1/genus/solanum"
      }
    },
    {
      "id": 182595,
      "common_name": "Cutleaf nightshade",
      "slug": "solanum-triflorum",
      "scientific_name": "Solanum triflorum",
      "year": 1818,
      "bibliography": "Gen. N. Amer. Pl. 1: 128 (1818)",
      "author": "Nutt.",
      "status": "accepted",
      "rank": "species",
      "family_common_name": "Potato family",
      "genus_id": 4329,
      "image_url": "https://bs.floristic.org/image/o/60071ac4aff647ca183470016e45059185551b3f",
      "synonyms": [
        "Solanum triflorum var. pyrethrifolium",
        "Solanum mendocinum",
        "Solanum triflorum var. majus",
        "Solanum triflorum var. minus",
        "Solanum calophyllum",
        "Solanum pyrethrifolium",
        "Solanum triflorum f. malvinum",
        "Solanum triflorum var. calophyllum",
        "Solanum ponticum",
        "Solanum gaudichaudii var. pyrethrifolium"
      ],
      "genus": "Solanum",
      "family": "Solanaceae",
      "links": {
        "self": "/api/v1/species/solanum-triflorum",
        "plant": "/api/v1/plants/solanum-triflorum",
        "genus": "/api/v1/genus/solanum"
      }
    },
    {
      "id": 166455,
      "common_name": "Mexican groundcherry",
      "slug": "physalis-philadelphica",
      "scientific_name": "Physalis philadelphica",
      "year": 1786,
      "bibliography": "Encycl. 2:101.  1786",
      "author": "Lam.",
      "status": "accepted",
      "rank": "species",
      "family_common_name": "Potato family",
      "genus_id": 4128,
      "image_url": "https://bs.floristic.org/image/o/0c6bbc7e0f6dd22dc9af698859479db4da84b699",
      "synonyms": [
        "Physalis mexicana",
        "Physalis violacea",
        "Physalis angulata var. philadelphica",
        "Physalis laevigata",
        "Physalis ovata",
        "Physalis cavaleriei",
        "Physalis atriplicifolia",
        "Saracha geniculata",
        "Physalis philadelphica var. minor",
        "Physalis geniculata",
        "Physalis megistocarpos",
        "Physalis chenopodiifolia",
        "Physalis michoacanensis"
      ],
      "genus": "Physalis",
      "family": "Solanaceae",
      "links": {
        "self": "/api/v1/species/physalis-philadelphica",
        "plant": "/api/v1/plants/physalis-philadelphica",
        "genus": "/api/v1/genus/physalis"
      }
    },
    {
      "id": 182586,
      "common_name": "Sticky nightshade",
      "slug": "solanum-sisymbriifolium",
      "scientific_name": "Solanum sisymbriifolium",
      "year": 1794,
      "bibliography": "Tabl. Encycl. 2: 25 (1794)",
      "author": "Lam.",
      "status": "accepted",
      "rank": "species",
      "family_common_name": "Potato family",
      "genus_id": 4329,
      "image_url": "https://bs.floristic.org/image/o/14a0486b13d8d632b43ca79782fecec0625c9e18",
      "synonyms": [
        "Solanum subviscidum",
        "Solanum brancaefolium",
        "Solanum inflatum",
        "Solanum opuliflorum",
        "Solanum bipinnatifidum",
        "Solanum thouinii",
        "Solanum rogersii",
        "Solanum sisymbriifolium var. macrocarpum",
        "Solanum sisymbriifolium var. heracleifolium",
        "Solanum sisymbriifolium f. lilacinum",
        "Solanum sisymbriifolium var. gracile",
        "Solanum balbisii var. purpureum",
        "Solanum pilosum",
        "Solanum balbisii var. oligospermum",
        "Solanum balbisii var. bipinnata",
        "Solanum viscidum",
        "Solanum sabeanum",
        "Solanum xanthacanthum"
      ],
      "genus": "Solanum",
      "family": "Solanaceae",
      "links": {
        "self": "/api/v1/species/solanum-sisymbriifolium",
        "plant": "/api/v1/plants/solanum-sisymbriifolium",
        "genus": "/api/v1/genus/solanum"
      }
    },
    {
      "id": 189048,
      "common_name": "Snakegourd",
      "slug": "trichosanthes-cucumerina",
      "scientific_name": "Trichosanthes cucumerina",
      "year": 1753,
      "bibliography": "Sp. Pl.: 1008 (1753)",
      "author": "L.",
      "status": "accepted",
      "rank": "species",
      "family_common_name": "Cucumber family",
      "genus_id": 6711,
      "image_url": "https://bs.floristic.org/image/o/9a8239795fdc9a9486883cc653b834a04345d238",
      "synonyms": [
        "Trichosanthes anguina",
        "Involucraria anguina",
        "Involucraria cordata",
        "Trichosanthes colubrina",
        "Trichosanthes cochinchinensis",
        "Trichosanthes ambrozii",
        "Trichosanthes pedatifolia",
        "Cucumis anguinus",
        "Anguina cucumerina",
        "Trichosanthes cucumerina var. lobata",
        "Trichosanthes cucumerina subsp. anguina",
        "Trichosanthes wightiana",
        "Trichosanthes brevibracteata",
        "Trichosanthes pachyrrhachis",
        "Trichosanthes lobata",
        "Trichosanthes olida",
        "Momordica spicata",
        "Trichosanthes costata",
        "Cucumis tubiflorus",
        "Tripodanthera cochinchinensis",
        "Momordica tubiflora",
        "Scotanthus porteanus",
        "Trichosanthes laciniata",
        "Scotanthus tubiflorus",
        "Gymnopetalum quinquelobatum",
        "Euonymus chinensis",
        "Gymnopetalum wightii",
        "Gymnopetalum tubiflorum",
        "Trichosanthes tubiflora",
        "Bryonia tubiflora",
        "Trichosanthes laciniosa",
        "Trichosanthes cucumerina var. anguina",
        "Gymnopetalum quinquelobum",
        "Gymnopetalum heterophyllum",
        "Gymnopetalum cochinchinense",
        "Gymnopetalum chinense",
        "Bryonia cochinchinensis",
        "Trichosanthes fatoa"
      ],
      "genus": "Trichosanthes",
      "family": "Cucurbitaceae",
      "links": {
        "self": "/api/v1/species/trichosanthes-cucumerina",
        "plant": "/api/v1/plants/trichosanthes-cucumerina",
        "genus": "/api/v1/genus/trichosanthes"
      }
    }
  ],
  "links": {
    "self": "/api/v1/species/search?q=tomato",
    "first": "/api/v1/species/search?page=1&q=tomato",
    "next": "/api/v1/species/search?page=2&q=tomato",
    "last": "/api/v1/species/search?page=8&q=tomato"
  },
  "meta": {
    "total": 159
  }
}